id_inventaire,fr_FR,en_EN
partie01,"Fouilles archéologiques d'Albert Lebègue de la _Villa_ romaine de Chiragan à Martres-Tolosane (Haute-Garonne) en 1890-1891, photo Félix Régnault Domaine Public","Archeological excavation by Albert Lebègue of the roman _Villa_ of Chiragan in Martres-Tolosane (Haute-Garonne) in 1890-1891, photo Félix Régnault Public Domain"
Ra 70,"Buste, musée Bardini Florence, Sailko / Wikimedia Commons CC BY-SA","Bust, Bardini Florence Museum, Sailko / Wikimedia Commons CC BY-SA"
Ra 117,"Buste de Trajan des thermes de Caracalla à Rome, Ny Carlsberg Glyptotek, Copenhague, Carole Raddato / Wikimedia Commons CC BY-SA","Bust of Trajan in the Caracalla baths in Rome, Ny Carlsberg Glyptotek, Copenhague, Carole Raddato / Wikimedia Commons CC BY-SA"
"Ra 119 - Ra 58 c","Représentation de Caracalla sur l'arc des Argentiers à Rome, Diletta Menghinello / Wikimedia Commons CC BY","Representation of Caracalla on the Arcus Argentarorium in Rome, Diletta Menghinello / Wikimedia Commons CC BY"
"Ra 119 - Ra 58 c","Buste de Caracalla enfant provenant de la maison des Vestales du forum romain/Jastrow Wikimedia Commons Public Domain","Bust of child Caracalla from the Vestales house of the roman forum/Jastrow Wikimedia Commons Public Domain"
"Ra 120 a","Septime Sévère, Courtesy of the Royal Ontario Museum, Toronto, Brian Boyle","Septimius Severus, Courtesy of the Royal Ontario Museum, Toronto, Brian Boyle"
Ra 122,"Marcus Junius Brutus, Musées du Capitole, Carlo Brogi /Wikimedia Commons Public Domain","Marcus Junius Brutus, Capitoline Museums, Carlo Brogi /Wikimedia Commons Public Domain"
Ra 124,"Groupe dynastique de Béziers, inv. Ra 226 à Ra 342, musée Saint-Raymond, Christelle Molinié / Wikimedia Commons CC BY-SA","Imperial statuary group of Béziers, inv. Ra 226 à Ra 342, musée Saint-Raymond, Christelle Molinié / Wikimedia Commons CC BY-SA"
Ra 168,"Buste de Caracalla enfant provenant de Markouna, Algérie, inv. Ma 1173 (MNB 782), musée du Louvre, Marie-Lan Nguyen / Wikimedia Commons CC BY","Bust of child Caracalla discovered in Markouna, Algeria, inv. Ma 1173 (MNB 782), the Louvre, Marie-Lan Nguyen / Wikimedia Commons CC BY"
"2000.32.1","Brutus par Michel-Ange, musée du Bargello Florence, Miguel Hermoso Cuesta / Wikimedia Commons CC BY-SA","Brutus by Michel-Ange, Bargello Florence Museum, Miguel Hermoso Cuesta / Wikimedia Commons CC BY-SA"
Ra 57,"Auguste de Prima Porta, Musées du Vatican, Michal Osmenda / Wikimedia Commons CC BY","Augustus of Prima Porta, Vatican Museum, Michal Osmenda / Wikimedia Commons CC BY"
Ra 57,"Portrait d'Auguste du type de Prima Porta, Musée du Louvre Ma 1247 (MR 426), Marie-Lan Nguyen / Wikimedia Commons CC BY","Portrait of Augustus of the Prima Porta type, the Louvre Museum Ma 1247 (MR 426), Marie-Lan Nguyen / Wikimedia Commons CC BY"
Ra 57,"« Auguste Bevilacqua », Glyptothèque de Munich, Carole Raddato / Wikimedia Commons CC BY-SA","Augustus Bevilacqua”, Munich Glyptothek, Carole Raddato / Wikimedia Commons CC BY-SA"
Ra 68 (1),"Musées du Capitole, Rome / Institut archéologique allemand, Rome","Capitole Museum, Rome / Institut archéologique allemand, Rome"
Ra 70,"Buste, musée Bardini Florence, Sailko / Wikimedia Commons CC BY-SA","Bust, Bardini Florence Museum, Sailko / Wikimedia Commons CC BY-SA"
Ra 71,"Dèce, inv. MC 482, Musées du Capitole, Sailko/Wikimedia Commons CC BY","Decius, inv. MC 482, Capitole Museum, Sailko/Wikimedia Commons CC BY"
Ra 73 a,"Buste d'Hadrien, British Museum, Carole Raddato / Wikimedia Commons CC BY-SA","Bust of Hadrien, British Museum, Carole Raddato / Wikimedia Commons CC BY-SA"
Ra 74,"Sesterce d'Etruscilla, Rome 250, inv. 2000.23.508 musée Saint-Raymond Toulouse, Daniel Martin CC BY-SA","Sesterce d'Etruscilla, Rome 250, inv. 2000.23.508 musée Saint-Raymond Toulouse, Daniel Martin CC BY-SA"
Ra 77,"Sabine en Vénus Genetrix, inv. 24, musée d'Ostie, Lalupa / Wikimedia Commons CC BY-SA","Sabine in Venus Genetrix, inv. 24, Ostie Museum, Lalupa / Wikimedia Commons CC BY-SA"
Ra 82,"Buste de femme au parchemin, inv. 66.25 Metropolitan museum, Public Domain http://www.metmuseum.org/art/collection/search/468716","Bust of a woman in parchment, inv. 66.25 Metropolitan museum, Public Domain http://www.metmuseum.org/art/collection/search/468716"
Ra 90,"Portrait de Tibère, Musée archéologique national de Tarragone, Francis Raher / Wikimedia Commons CC BY","Portrait of Tiberius, Tarragone National Archaeological Museum, Francis Raher / Wikimedia Commons CC BY"
Ra 41,"Esculape de Bulla Regia, musée du Bardo (Tunisie), Elcèd77 / Wikimedia Commons CC BY-SA","Asclepius of Bulla Regia, Bardo Museum (Tunisia), Elcèd77 / Wikimedia Commons CC BY-SA"
Ra 41,"Esculape, musée national archéologique de Tarragone, Ramon Cornadó, musée de Tarragone","Asclepius, National Archaeological Museum of Tarragone, Ramon Cornadó, Tarragone Museum"
Ra 112,"Athéna et Marsyas, musées du Vatican, Sailko / Wikimedia Commons CC BY","Athena and Marsyas, Vatican Museums, Sailko / Wikimedia Commons CC BY"
Ra 112,"Athéna de Myron, inv. 195 musée Liebieghaus, Francfort, Carole Raddato / Wikimedia Commons CC BY-SA","Athena of Myron, inv. 195 Liebieghaus Museum, Frankfurt, Carole Raddato / Wikimedia Commons CC BY-SA"
Ra 113,"Pallas Velletri, musée du Louvre, Kimberly Vardeman / Wikimedia Commons CC BY","Pallas Velletri, the Louvre, Kimberly Vardeman / Wikimedia Commons CC BY"
Ra 115,"Hercule Farnèse, musée archéologique national de Naples, Inv. 6001, Marie-Lan Nguyen / Wikimedia Commons CC BY","Hercules Farnese, National Archaeological Museums of Naples, Inv. 6001, Marie-Lan Nguyen / Wikimedia Commons CC BY"
Ra 134-Ra 137,"Groupe de Bacchus du temple de Mithra, Museum of London, inv. 18496, Ethan Doyle White /Wikimedia Commons CC BY-SA","Bacchus group at Mithra temple, Museum of London, inv. 18496, Ethan Doyle White /Wikimedia Commons CC BY-SA"
Ra 134-Ra 137,"Apollon Sauroctone, musée du Louvre, Paris, inv. MR 78, Ma 44, Marie-Lan Nguyen /Wikimedia Commons CC BY","Apollon Sauroctone, the Louvre, Paris, inv. MR 78, Ma 44, Marie-Lan Nguyen /Wikimedia Commons CC BY"
Ra 151-Ra 114,"Artemis du type Rospigliosi, Staatlichen Kunstsammlungen Dresde","Artemis of the Rospigliosi-Latran type, Staatlichen Kunstsammlungen Dresde"
Ra 184,"Eros Farnèse du type de Centocelle, musée archéologique national de Naples, Marie-Lan Nguyen / Wikimedia Commons CC BY","Eros Farnese of the Centocelle type, National Archaeological Museums of Naples, Marie-Lan Nguyen / Wikimedia Commons CC BY"
Ra 29,"Hadès trônant, théâtre de Hierapolis, Hierapolis Archeological Museum, © The Tourism Directorate of Denizli Directorate of Pamukkale Tourist Information","Hades enthroned, theatre of Hierapolis, Hierapolis Archeological Museum, © The Tourism Directorate of Denizli Directorate of Pamukkale Tourist Information"
Ra 29,"Perséphone (en Isis), Cerbère, et Pluton (en Serapis). Provenance Gortys, Crète, Musée archéologique d'Héraklion Jebulon CC0 Wikimedia Commons","Persephone (in Isis), Cerberus, and Pluto (in Serapis). Provenance: Gortys, Crète, Archeological Museum of Heraklion Jebulon CC0 Wikimedia Commons"
"Ra 38 (1)","Isis, Kunsthistorisches Museum Vienne, Gryffindor / Wikimedia Commons CC BY","Isis, Kunsthistorisches Museum Vienne, Gryffindor / Wikimedia Commons CC BY"
Ra 40,"Tétradrachme de Trajan, © University of Oxford Roman Provincial Coinage Online","Tetradrachm of Trajan, © University of Oxford Roman Provincial Coinage Online"
Ra 40,"Monnaie d'Etruscilla, atelier de Nicée (Bithynie), Bibliothèque nationale de France, Domaine public","Estruscilla coin, workshop of Nicea (Bithynia), Bibliothèque nationale de France, Public domain"
Ra 52,"Vénus Médicis, Galerie des Offices Florence, Sailko / Wikimedia Commons CC BY","Medici Venus, Galerie des Offices Florence, Sailko / Wikimedia Commons CC BY"
Ra 52,"Vénus d'Arles, musée du Louvre, Alain Darles / Wikimedia Commons CC BY","Arles Venus, the Louvre, Alain Darles / Wikimedia Commons CC BY"
Ra 52,"Vénus de Milo, musée du Louvre, Kimberly Vardeman / Wikimedia Commons CC BY","Milo Venus, the Louvre, Kimberly Vardeman / Wikimedia Commons CC BY"
Ra 52,"Tête Borghèse, musée du Louvre, Marie-Lan Nguyen / Wikimedia Commons CC BY","Borghèse Head, the Louvre, Marie-Lan Nguyen / Wikimedia Commons CC BY"
Ra 52,"Vénus Colonna, musées du Vatican, Wikimedia Commons Public Domain","Colonna Venus, Museums at the Vatican, Wikimedia Commons Public Domain"
Ra 52,"Tête Kaufmann, musée du Louvre, Marie-Lan Nguyen / Wikimedia Commons CC BY","Kaufmann head, the Louvre, Marie-Lan Nguyen / Wikimedia Commons CC BY"
Ra 28 j,"Caius Cartilius Poplicola, musée d'Ostie, Sailko / Wikimedia Commons CC BY","Caius Cartilius Poplicola, Ostia Museum, Sailko / Wikimedia Commons CC BY"
partie04,"Antoninien. Portrait de Maximien et Hercule garant de la paix, atelier de Lyon, Maxime Cambreling / Wikimedia Commons CC BY-SA","Antoninien. Portrait of Maximian and Hercules guarantors of the peace, Lyon atelier, Maxime Cambreling / Wikimedia Commons CC BY-SA"
partie04,"Denier de Dioclétien provenant de Martres-Tolosane atelier de Lyon, Vincent Geneviève, musée Saint-Raymond","Denarius of Diocletian from Martres-Tolosane atelier de Lyon, Vincent Geneviève, musée Saint-Raymond"
partie04,"Denier de Dioclétien provenant de Martres-Tolosane atelier de Lyon, Vincent Geneviève, musée Saint-Raymond","Denarius of Diocletian from Martres-Tolosane atelier de Lyon, Vincent Geneviève, musée Saint-Raymond"
partie04,"Bas-relief de Mérida, museo romano de Mérida, Santiago Abella","Bas-relief de Mérida, museo romano de Mérida, Santiago Abella","Bas-relief de Mérida, museo romano de Mérida, Santiago Abella"
partie04,"Palais romain de Cercadilla, Américo Toledano / Wikimedia Commons CC BY-SA","Roman Palacio de Cercadilla, Américo Toledano / Wikimedia Commons CC BY-SA"
Ra 116-Ra 95,"Buste de Pythagore en hermès musées du Capitole (inv. MC0594), Szilas / Wikimedia Commons CC0","Bust of Pythagoras in herma Museums of the Capitole (inv. MC0594), Szilas / Wikimedia Commons CC0"
Ra 116-Ra 95,"Portrait de Socrate de la série de bustes sur boucliers découverts à Aphrodisias, Musée d'Aphrodisias, Carole Raddato / Wikimedia Commons CC BY","Socrates portrait from the series of busts on shields discovered at Aphrodisias, Aphrodisias Museum, Carole Raddato / Wikimedia Commons CC BY"
Ra 116-Ra 95,"Série de bustes de la villa de Welschbillig (Rhénanie-Palatinat) Rheinisches Landemuuseum, Kleon3 / Wikimedia Commons CC BY-SA","Series of busts discovered in the Villa Welschbillig (Rhineland-Palatinate) Rheinisches Landemuuseum, Kleon3 / Wikimedia Commons CC BY-SA"
Ra 28 d,"Grand autel de Pergame Antikensammlung Berlin, Miguel Hermoso Cuesta / Wikimedia Commons CC BY-SA","Pergamon Altar Antikensammlung Berlin, Miguel Hermoso Cuesta / Wikimedia Commons CC BY-SA"
Ra 28 g,"Bas-relief de Prométhée et Heraclès provenant du Sébasteion d'Aphrosisias, musée archéologique d'Aphrodisias, Egisto Sani CC BY-NC-SA, Flickr, https://www.flickr.com/photos/69716881@N02/42344930332","Bas-relief of Prometheus and Heracles from Sebasteion of Aphrosisias, Aphrodisias Museum, Egisto Sani CC BY-NC-SA, Flickr, https://www.flickr.com/photos/69716881@N02/42344930332"
Ra 34 1,"Portrait de Pindare de la série de bustes sur boucliers découverte à Aphrodisias (Carie, Asie Mineure), © Feridun F. Alkaya / FlickR","Portrait of Pindare from the series of busts on shields discovered in Aphrodisias (Carie, Asie Mineure), © Feridun F. Alkaya / FlickR"
Ra 34 1,"Hélios/Sol de l’Esquilin, inv. 623, © Ole Haupt, Ny Carlsberg Glyptotek, Copenhague","Helios/Sol of Esquilin, inv. 623, © Ole Haupt, Ny Carlsberg Glyptotek, Copenhague"
Ra 93 ter,"Tête de Maxence, musée August Kestner Hanovre, Marcus Cyron / Wikimedia Commons CC BY-SA","Head of Maxentius, August Kestner Hanovre Museum, Marcus Cyron / Wikimedia Commons CC BY-SA"
